%YAML 1.1
%TAG !u! tag:unity3d.com,2011:
--- !u!1 &2527961885809590925
GameObject:
  m_ObjectHideFlags: 0
  m_CorrespondingSourceObject: {fileID: 0}
  m_PrefabInstance: {fileID: 0}
  m_PrefabAsset: {fileID: 0}
  serializedVersion: 6
  m_Component:
  - component: {fileID: 5592430523515873432}
  - component: {fileID: 7959755158524905161}
  - component: {fileID: 5711950115902508150}
  - component: {fileID: 1207218658213752307}
  - component: {fileID: 7432243990883686565}
  m_Layer: 0
  m_Name: PlayerInDungeon
  m_TagString: Player
  m_Icon: {fileID: 0}
  m_NavMeshLayer: 0
  m_StaticEditorFlags: 0
  m_IsActive: 1
--- !u!4 &5592430523515873432
Transform:
  m_ObjectHideFlags: 0
  m_CorrespondingSourceObject: {fileID: 0}
  m_PrefabInstance: {fileID: 0}
  m_PrefabAsset: {fileID: 0}
  m_GameObject: {fileID: 2527961885809590925}
  m_LocalRotation: {x: 0, y: 0, z: 0, w: 1}
  m_LocalPosition: {x: 0, y: 0, z: 0}
  m_LocalScale: {x: 1, y: 1, z: 1}
  m_Children: []
  m_Father: {fileID: 0}
  m_RootOrder: 0
  m_LocalEulerAnglesHint: {x: 0, y: 0, z: 0}
--- !u!212 &7959755158524905161
SpriteRenderer:
  m_ObjectHideFlags: 0
  m_CorrespondingSourceObject: {fileID: 0}
  m_PrefabInstance: {fileID: 0}
  m_PrefabAsset: {fileID: 0}
  m_GameObject: {fileID: 2527961885809590925}
  m_Enabled: 1
  m_CastShadows: 0
  m_ReceiveShadows: 0
  m_DynamicOccludee: 1
  m_MotionVectors: 1
  m_LightProbeUsage: 1
  m_ReflectionProbeUsage: 1
  m_RayTracingMode: 0
  m_RenderingLayerMask: 1
  m_RendererPriority: 0
  m_Materials:
  - {fileID: 10754, guid: 0000000000000000f000000000000000, type: 0}
  m_StaticBatchInfo:
    firstSubMesh: 0
    subMeshCount: 0
  m_StaticBatchRoot: {fileID: 0}
  m_ProbeAnchor: {fileID: 0}
  m_LightProbeVolumeOverride: {fileID: 0}
  m_ScaleInLightmap: 1
  m_ReceiveGI: 1
  m_PreserveUVs: 0
  m_IgnoreNormalsForChartDetection: 0
  m_ImportantGI: 0
  m_StitchLightmapSeams: 1
  m_SelectedEditorRenderState: 0
  m_MinimumChartSize: 4
  m_AutoUVMaxDistance: 0.5
  m_AutoUVMaxAngle: 89
  m_LightmapParameters: {fileID: 0}
  m_SortingLayerID: 0
  m_SortingLayer: 0
  m_SortingOrder: 1
  m_Sprite: {fileID: 21300000, guid: bb6e3eb7b1f740f47991e7bf5036e916, type: 3}
  m_Color: {r: 1, g: 1, b: 1, a: 1}
  m_FlipX: 0
  m_FlipY: 0
  m_DrawMode: 0
  m_Size: {x: 0.64, y: 0.64}
  m_AdaptiveModeThreshold: 0.5
  m_SpriteTileMode: 0
  m_WasSpriteAssigned: 1
  m_MaskInteraction: 0
  m_SpriteSortPoint: 0
--- !u!50 &5711950115902508150
Rigidbody2D:
  serializedVersion: 4
  m_ObjectHideFlags: 0
  m_CorrespondingSourceObject: {fileID: 0}
  m_PrefabInstance: {fileID: 0}
  m_PrefabAsset: {fileID: 0}
  m_GameObject: {fileID: 2527961885809590925}
  m_BodyType: 0
  m_Simulated: 1
  m_UseFullKinematicContacts: 0
  m_UseAutoMass: 0
  m_Mass: 0.0001
  m_LinearDrag: 0
  m_AngularDrag: 0
  m_GravityScale: 0
  m_Material: {fileID: 0}
  m_Interpolate: 0
  m_SleepingMode: 1
  m_CollisionDetection: 1
  m_Constraints: 4
--- !u!114 &1207218658213752307
MonoBehaviour:
  m_ObjectHideFlags: 0
  m_CorrespondingSourceObject: {fileID: 0}
  m_PrefabInstance: {fileID: 0}
  m_PrefabAsset: {fileID: 0}
  m_GameObject: {fileID: 2527961885809590925}
  m_Enabled: 1
  m_EditorHideFlags: 0
  m_Script: {fileID: 11500000, guid: b70c43df4089cde479005fa0db92951d, type: 3}
  m_Name: 
  m_EditorClassIdentifier: 
  rigidbody: {fileID: 5711950115902508150}
--- !u!60 &7432243990883686565
PolygonCollider2D:
  m_ObjectHideFlags: 0
  m_CorrespondingSourceObject: {fileID: 0}
  m_PrefabInstance: {fileID: 0}
  m_PrefabAsset: {fileID: 0}
  m_GameObject: {fileID: 2527961885809590925}
  m_Enabled: 1
  m_Density: 1
  m_Material: {fileID: 0}
  m_IsTrigger: 0
  m_UsedByEffector: 0
  m_UsedByComposite: 0
  m_Offset: {x: 0, y: 0}
  m_SpriteTilingProperty:
    border: {x: 0, y: 0, z: 0, w: 0}
    pivot: {x: 0.5, y: 0.5}
    oldSize: {x: 0.64, y: 0.64}
    newSize: {x: 0.64, y: 0.64}
    adaptiveTilingThreshold: 0.5
    drawMode: 0
    adaptiveTiling: 0
  m_AutoTiling: 0
  m_Points:
    m_Paths:
    - - {x: 0.21000001, y: -0.21800001}
      - {x: 0.20600002, y: -0.21000001}
      - {x: 0.19800001, y: -0.19000001}
      - {x: 0.16800001, y: -0.17400001}
      - {x: 0.16800001, y: -0.15400001}
      - {x: 0.18, y: -0.15200001}
      - {x: 0.19600001, y: -0.156}
      - {x: 0.22000001, y: -0.124000005}
      - {x: 0.22000001, y: -0.112}
      - {x: 0.22000001, y: -0.14}
      - {x: 0.216, y: -0.148}
      - {x: 0.22000001, y: -0.156}
      - {x: 0.238, y: -0.16800001}
      - {x: 0.26200002, y: -0.14600001}
      - {x: 0.272, y: -0.104}
      - {x: 0.284, y: -0.060000002}
      - {x: 0.284, y: -0.014}
      - {x: 0.28, y: 0.014}
      - {x: 0.29000002, y: 0.034}
      - {x: 0.29000002, y: 0.060000002}
      - {x: 0.298, y: 0.080000006}
      - {x: 0.30600002, y: 0.11400001}
      - {x: 0.314, y: 0.126}
      - {x: 0.31800002, y: 0.14600001}
      - {x: 0.32000002, y: 0.162}
      - {x: 0.32000002, y: 0.18800001}
      - {x: 0.316, y: 0.194}
      - {x: 0.28, y: 0.192}
      - {x: 0.272, y: 0.194}
      - {x: 0.256, y: 0.19000001}
      - {x: 0.224, y: 0.19600001}
      - {x: 0.18, y: 0.20600002}
      - {x: 0.162, y: 0.21200001}
      - {x: 0.16800001, y: 0.22600001}
      - {x: 0.13800001, y: 0.24400002}
      - {x: 0.13000001, y: 0.24200001}
      - {x: 0.112, y: 0.25}
      - {x: 0.074, y: 0.266}
      - {x: 0.068, y: 0.27400002}
      - {x: 0.060000002, y: 0.27400002}
      - {x: 0.056, y: 0.268}
      - {x: 0.028, y: 0.27400002}
      - {x: 0.022000002, y: 0.27400002}
      - {x: 0.022000002, y: 0.272}
      - {x: -0.018000001, y: 0.27400002}
      - {x: -0.060000002, y: 0.268}
      - {x: -0.072000004, y: 0.27400002}
      - {x: -0.086, y: 0.27400002}
      - {x: -0.094000004, y: 0.26000002}
      - {x: -0.120000005, y: 0.26000002}
      - {x: -0.126, y: 0.254}
      - {x: -0.15200001, y: 0.24400002}
      - {x: -0.172, y: 0.23200001}
      - {x: -0.192, y: 0.22600001}
      - {x: -0.19600001, y: 0.21800001}
      - {x: -0.21200001, y: 0.20400001}
      - {x: -0.22200002, y: 0.19800001}
      - {x: -0.298, y: 0.19800001}
      - {x: -0.31800002, y: 0.19600001}
      - {x: -0.32000002, y: 0.194}
      - {x: -0.32000002, y: 0.08800001}
      - {x: -0.314, y: 0.066}
      - {x: -0.29200003, y: 0.05}
      - {x: -0.29200003, y: 0.042000003}
      - {x: -0.27400002, y: 0.024}
      - {x: -0.25800002, y: 0.010000001}
      - {x: -0.27600002, y: -0.014}
      - {x: -0.27800003, y: -0.044000003}
      - {x: -0.27400002, y: -0.07}
      - {x: -0.272, y: -0.11000001}
      - {x: -0.26200002, y: -0.128}
      - {x: -0.254, y: -0.132}
      - {x: -0.24400002, y: -0.14600001}
      - {x: -0.22800002, y: -0.15200001}
      - {x: -0.224, y: -0.164}
      - {x: -0.21200001, y: -0.164}
      - {x: -0.18400002, y: -0.172}
      - {x: -0.16600001, y: -0.162}
      - {x: -0.16600001, y: -0.178}
      - {x: -0.18200001, y: -0.186}
      - {x: -0.2, y: -0.192}
      - {x: -0.192, y: -0.208}
      - {x: -0.19800001, y: -0.22600001}
      - {x: -0.19800001, y: -0.25}
      - {x: -0.202, y: -0.272}
      - {x: -0.2, y: -0.314}
      - {x: -0.19600001, y: -0.32000002}
      - {x: 0.22200002, y: -0.32000002}
      - {x: 0.224, y: -0.252}
      - {x: 0.23, y: -0.224}
